{
    "FILENAME": "secret.json",
    "SECRET_KEY": "pn%szqpp)hku91xskt4x5(_!)3g6()4b-ikk^9)hsb#tnw6&++",
    "DB_NAME": "db_enhanced_blog",
    "USER": "user_enhanced_blog",
    "PASSWORD":     "K&P7cU7#Be<7",
    "EMAIL": "zapeta.pablo@gmail.com",
    "EMAIL_PASSWORD": "P@bl02010"
}